{
    "lines": [
        { "text": "In order to properly break down Goethite to release free hydrogen, a secondary compund named after geologist Sofia Neumann is used as a catalyst.  Also useful as a cleaning and debriding agent, or contact lens solution." }
    ]
}
