{
  "lines":[
    { "text": "Doctor...", "title": "ARGOS" },
    { "text": "I, too, was grateful to have been born on that planet at that time, with you.", "title": "ARGOS" },
    { "text": "And Though I have failed you, and could never repay you for all you've done for me, I will promise you this:", "title": "ARGOS" },
    { "text": "For all my days, I will remember you and our home.", "title": "ARGOS" },
    { "text": "And as the last living creature from that small blue planet called Earth.", "title": "ARGOS" },
    { "text": "I will tell the story of our lost, hopeful, imperfect, and beautiful people; even if there is no one left to listen.", "title": "ARGOS" }
  ]
}
