{
    "lines": [
        { "text": "An act of desperation..." },
        { "text": "To be born and orphaned in the same instant." },
        { "text": "Mother... what am I supposed to do now?" }
    ]
}
