{
    "lines": [
        { "text": "Aha, I found the humans.  Or their genes anyway.  The samples look safe, and sound." },
        { "text": "Mother, I know you'd be happy, your gamble paid off.  The humans have survived and this planet looks to be salvagable in a few thousand years, possibly even habitable.." },
        { "text": "I wish you were here to see this..." },
        { "text": "Once I get the other reactions started I should return here to plan the colonization effort." }
    ]
}
